# File produced by Open Asset Import Library (http://www.assimp.sf.net)
# (assimp v4.1.0)

newmtl Material
Kd 0.6399999856948853 0.6399999856948853 0.6399999856948853
Ka 0 0 0
Ks 0.5 0.5 0.5
Ke 0 0 0
Ni 1
Ns 50
illum 2

newmtl alu_eloxiert
Kd 0.1139201000332832 0.1139201000332832 0.1139201000332832
Ka 0 0 0
Ks 0.5 0.5 0.5
Ke 0 0 0
Ni 1
Ns 50
illum 2

newmtl any_blau
Kd 0.239999994635582 0.3499999940395355 0.5899999737739563
Ka 0 0 0
Ks 1 1 1
Ke 0 0 0
Ni 1
Ns 50
illum 2

newmtl carbon_fibre
Kd 1 1 1
Ka 0 0 0
Ks 0.25 0.25 0.25
Ke 0 0 0
Ni 1
Ns 50
illum 2
map_Kd base_uv_texture.jpg

newmtl foam_dark
Kd 0.1000000014901161 0.1000000014901161 0.1000000014901161
Ka 0 0 0
Ks 0.25 0.25 0.25
Ke 0 0 0
Ni 1
Ns 50
illum 2

newmtl rot_emcy
Kd 0.2611002027988434 0.0964537188410759 0.07358386367559433
Ka 0 0 0
Ks 0.5 0.5 0.5
Ke 0 0 0
Ni 1
Ns 50
illum 2

newmtl yellow_emcy
Kd 0.5987204909324646 0.4607707858085632 0.2442722022533417
Ka 0 0 0
Ks 0.5 0.5 0.5
Ke 0 0 0
Ni 1
Ns 50
illum 2

